…
## Map na's

```r
parks %>%
  purrr::map_df(~ sum(is.na(.))) %>%
  tidyr::gather(variables, num_nas) %>% 
  arrange(desc(num_nas))
```

```
## # A tibble: 35 x 2
##    variables                        num_nas
##    <chr>                              <int>
##  1 ConcessionerLodgingTotal           19224
##  2 ConcessionerLodging                10376
##  3 Backcountry                         9875
##  4 NonRecreationOvernightStaysTotal    4499
##  5 ConcessionerCamping                 2880
##  6 NonRecreationOvernightStays         1607
##  7 ParkName                               0
##  8 UnitCode                               0
##  9 ParkType                               0
## 10 Region                                 0
## # … with 25 more rows
```
…
